Homework 9: Modeling Practice
…
Use 5 of each tuning parameter (cost_complexity and min_n)

reg_tree_fit <- reg_tree_wkf |> 
  tune_grid(resamples = train_10_fold,
            grid = grid_regular(min_n(),
                                cost_complexity(),
                                levels = c(5, 5)),
            metrics = metric_set(rmse, mae))

# view metrics for each fold
reg_tree_fit |>
  collect_metrics(type = 'wide') |>
  arrange(rmse, mae)

# A tibble: 25 × 5
   cost_complexity min_n .config            mae  rmse
             <dbl> <int> <chr>            <dbl> <dbl>
 1    0.000562        40 pre0_mod20_post0 3716. 5406.
 2    0.0000000001    40 pre0_mod05_post0 3716. 5406.
 3    0.0000000178    40 pre0_mod10_post0 3716. 5406.
 4    0.00000316      40 pre0_mod15_post0 3716. 5406.
 5    0.0000000001    30 pre0_mod04_post0 3702. 5518.
 6    0.0000000178    30 pre0_mod09_post0 3702. 5518.
 7    0.00000316      30 pre0_mod14_post0 3702. 5518.
 8    0.000562        30 pre0_mod19_post0 3699. 5518.
 9    0.0000000001    21 pre0_mod03_post0 3785. 5595.
10    0.0000000178    21 pre0_mod08_post0 3785. 5595.
# ℹ 15 more rows
…
MLR Model coefficient table

MLR_final |>
  extract_fit_parsnip() |>
  tidy()

# A tibble: 30 × 5
   term                               estimate std.error statistic      p.value
   <chr>                                 <dbl>     <dbl>     <dbl>        <dbl>
 1 (Intercept)                          15610.     2672.    5.84   0.0000000164
 2 season_Spring                          203.     3912.    0.0519 0.959       
 3 season_Summer                        24232.     5397.    4.49   0.0000110   
 4 season_Winter                         -898.     4823.   -0.186  0.853       
 5 holiday_No.Holiday                    6036.     2356.    2.56   0.0110      
 6 day_type_Weekend                     -1994.      698.   -2.86   0.00466     
 7 season_Spring_x_holiday_No.Holiday   -3631.     3961.   -0.917  0.360       
 8 season_Summer_x_holiday_No.Holiday   -2862.     4250.   -0.673  0.501       
 9 season_Winter_x_holiday_No.Holiday   -4358.     3376.   -1.29   0.198       
10 season_Spring_x_mean_temp             6884.     1969.    3.50   0.000560    
# ℹ 20 more rows
…
